{"@version":"1","@timestamp":"2015-08-04T10:40:23.000Z","log_time":"2015-08-04;10:40:23","page_id":"basket","page_url":"http%3A%2F%2Fwww.farfetch.com%2Fru%2Fcheckout%2Fbasket.aspx%3Fffref%3Dhd_bag_gotoc","session_id":"xywl1fst2smy05sun420b034","country_id":"170","is_logged":"false","has_video":"B","is_returning":"false","basket_id":"30efcb78-9436-42fa-9883-ae4eba916f7a","instance_id":"30efcb78-9436-42fa-9883-ae4eba916f7a","cookie_id":"xywl1fst2smy05sun420b0345463030BA35204600189CD5D00","ip":"95.161.239.30","agent":"Mozilla%2F5.0+(Windows+NT+5.1)+AppleWebKit%2F537.36+(KHTML%2C+like+Gecko)+Chrome%2F44.0.2403.125+Safari%2F537.36","is_flat_rate_ship":"-1","referral":"http%3A%2F%2Fwww.farfetch.com%2Fru%2Fshopping%2Fwomen%2Fnew-balance--574-item-10932705.aspx%3Fstoreid%3D9058%26ffref%3Dlp_1_15_","browser_language":"ru","sub_folder":"%2Fru","geo_sub_folder":"%2Fru","just_registered":"false","returning":"false","is_bot":"false","checkout_type":"4","geoip":{"ip":"95.161.239.30","country_code2":"RU","country_code3":"RUS","country_name":"Russian Federation","continent_code":"EU","latitude":60.0,"longitude":100.0,"location":[100.0,60.0]}}
{"@version":"1","@timestamp":"2015-08-04T10:40:23.000Z","log_time":"2015-08-04;10:40:23","page_id":"geral","page_url":"http%3A%2F%2Fwww.farfetch.com%2Fcn%2Fshopping%2Fwomen%2Fitems.aspx%3Fffref%3Dhp_gender","session_id":"isdcw1xgmtlxzcbmtmelrktr","country_id":"42","is_logged":"false","has_video":"A","is_returning":"false","basket_id":"df970c8f-c86b-4d48-b767-8b74d723edb0","instance_id":"df970c8f-c86b-4d48-b767-8b74d723edb0","cookie_id":"arx4c1fl0rjgwxhrulzungsbA02B12FB81CCA0EDE3F9E6853C","ip":"1.202.55.16","agent":"Mozilla%2F5.0+(Windows+NT+6.1%3B+WOW64%3B+Trident%2F7.0%3B+SLCC2%3B+.NET+CLR+2.0.50727%3B+.NET+CLR+3.5.30729%3B+.NET+CLR+3.0.30729%3B+Media+Center+PC+6.0%3B+.NET4.0C%3B+.NET4.0E%3B+InfoPath.3%3B+GWX%3ADOWNLOADED%3B+SE+2.X+MetaSr+1.0%3B+rv%3A11.0)+like+Gecko","is_flat_rate_ship":"-1","browser_language":"zh-CN","sub_folder":"%2Fcn","geo_sub_folder":"%2Fcn","just_registered":"false","returning":"false","is_bot":"false","tracker_id":"358","tracker_value":"248","checkout_type":"4","geoip":{"ip":"1.202.55.16","country_code2":"CN","country_code3":"CHN","country_name":"China","continent_code":"AS","region_name":"22","city_name":"Beijing","latitude":39.9289,"longitude":116.38830000000002,"timezone":"Asia/Harbin","real_region_name":"Beijing","location":[116.38830000000002,39.9289]}}
{"@version":"1","@timestamp":"2015-08-04T10:40:23.000Z","log_time":"2015-08-04;10:40:23","page_id":"product","page_url":"http%3A%2F%2Fwww.farfetch.com%2Fpl%2Fshopping%2Fwomen%2FSaint-Laurent-stiletto-ankle-boots-item-11117398.aspx%3Fzanpid%3D2063597012255089664","session_id":"1wridrxfwey4g4ppctw5hvsa","country_id":"164","is_logged":"false","has_video":"B","is_returning":"false","basket_id":"1f0dd75e-b9ae-4b00-98ca-170f0494fbe4","instance_id":"1f0dd75e-b9ae-4b00-98ca-170f0494fbe4","cookie_id":"30jfaz4b4ulfzpdtq5ovu1gf48A41B6DC861882DC2FAD1E77B","ip":"95.108.120.64","agent":"Mozilla%2F5.0+(Windows+NT+6.3%3B+WOW64)+AppleWebKit%2F537.36+(KHTML%2C+like+Gecko)+Chrome%2F44.0.2403.125+Safari%2F537.36","is_flat_rate_ship":"-1","referral":"http%3A%2F%2Fsellektor.com%2Fgo%3Fref%3Dhttp%3A%2F%2Fsellektor.com%2Fproducts%2Fsaint-laurent-stiletto-ankle-boots-737d7830-4cad-441a-b8fd-01ccc82d7629","browser_language":"pl","sub_folder":"%2Fpl","geo_sub_folder":"%2Fpl","just_registered":"false","returning":"false","is_bot":"false","tracker_id":"25","checkout_type":"4","geoip":{"ip":"95.108.120.64","country_code2":"PL","country_code3":"POL","country_name":"Poland","continent_code":"EU","region_name":"86","city_name":"Poznan","latitude":52.41669999999999,"longitude":16.966700000000003,"timezone":"Europe/Warsaw","real_region_name":"Wielkopolskie","location":[16.966700000000003,52.41669999999999]}}
{"@version":"1","@timestamp":"2015-08-04T10:40:23.000Z","log_time":"2015-08-04;10:40:23","cs_ilc%5Bpt%5D":"22","cs_ilc%5Bps%5D":"1","cs_ilc%5Bpv%5D":"60","cs_ilc%5Bit%5D":"items","page_id":"listing","page_url":"http%3A%2F%2Fwww.farfetch.com%2Fkw%2Fshopping%2Fwomen%2Fv-jewellery%2Fitems.aspx%23ps%3D1%26pv%3D60%26oby%3D5","session_id":"wbodpka53eilrvkcr1jdwwdn","country_id":"110","is_logged":"false","has_video":"A","is_returning":"false","basket_id":"16c02375-5ac9-415f-83f7-e34236ad58e3","instance_id":"16c02375-5ac9-415f-83f7-e34236ad58e3","cookie_id":"qza2amlxpd445nhml45bhrmfAB44A4EE1AE57BD83565333B2E","ip":"94.29.188.9","agent":"Mozilla%2F5.0+(Windows+NT+6.1)+AppleWebKit%2F537.36+(KHTML%2C+like+Gecko)+Chrome%2F46.0.2467.2+Safari%2F537.36","is_flat_rate_ship":"-1","referral":"http%3A%2F%2Fwww.farfetch.com%2Fkw%2Fdesigners-women.aspx%3Fffref%3Dhd_mnav","browser_language":"en-US","sub_folder":"%2Fkw","geo_sub_folder":"%2Fkw","just_registered":"false","returning":"false","is_bot":"false","checkout_type":"4","geoip":{"ip":"94.29.188.9","country_code2":"KW","country_code3":"KWT","country_name":"Kuwait","continent_code":"AS","latitude":29.337500000000006,"longitude":47.65809999999999,"timezone":"Asia/Kuwait","location":[47.65809999999999,29.337500000000006]}}
{"@version":"1","@timestamp":"2015-08-04T10:40:23.000Z","log_time":"2015-08-04;10:40:23","cs_ilc%5Bpt%5D":"168","cs_ilc%5Bps%5D":"1","cs_ilc%5Bpv%5D":"60","cs_ilc%5Bit%5D":"%D0%B8%D0%B7%D0%B4%D0%B5%D0%BB%D0%B8%D0%B9","page_id":"listing","page_url":"http%3A%2F%2Fwww.farfetch.com%2Fru%2Fshopping%2Fwomen%2Ftods%2Fitems.aspx%23ps%3D1%26pv%3D60%26oby%3D5","session_id":"g5wd55pn4dvr2pfg2nqxy1ts","country_id":"170","is_logged":"false","has_video":"A","is_returning":"false","basket_id":"d8249469-50f5-4475-a8ab-2b7c0143e0a4","instance_id":"d8249469-50f5-4475-a8ab-2b7c0143e0a4","cookie_id":"ck32tb3bykhz0r0qky50dakkFCD144629C46A1438691542574","ip":"194.152.62.226","agent":"Mozilla%2F5.0+(Windows+NT+6.1%3B+WOW64%3B+Trident%2F7.0%3B+SLCC2%3B+.NET+CLR+2.0.50727%3B+.NET+CLR+3.5.30729%3B+.NET+CLR+3.0.30729%3B+Media+Center+PC+6.0%3B+.NET4.0C%3B+.NET4.0E%3B+rv%3A11.0)+like+Gecko","is_flat_rate_ship":"-1","referral":"http%3A%2F%2Fwww.farfetch.com%2Fru%2Fdesigners-women.aspx%3Fffref%3Dhd_mnav","browser_language":"ru-RU","sub_folder":"%2Fru","geo_sub_folder":"%2Fru","just_registered":"false","returning":"false","is_bot":"false","checkout_type":"4","geoip":{"ip":"194.152.62.226","country_code2":"RU","country_code3":"RUS","country_name":"Russian Federation","continent_code":"EU","latitude":60.0,"longitude":100.0,"location":[100.0,60.0]}}
{"@version":"1","@timestamp":"2015-08-04T10:40:23.000Z","log_time":"2015-08-04;10:40:23","page_id":"homepage","page_url":"http%3A%2F%2Fwww.farfetch.com%2Fbr%2F","session_id":"be5abusjzkvbzejxqo1kqiw4","country_id":"28","is_logged":"false","is_returning":"false","basket_id":"20b827bf-a8f0-45b4-85ff-b9213e694592","instance_id":"20b827bf-a8f0-45b4-85ff-b9213e694592","cookie_id":"hk3jz3rmbbnxl5ur3kc3anxoD47E94EF861BB7EA9A03C4610D","ip":"154.127.140.91","agent":"Mozilla%2F5.0+(iPhone%3B+CPU+iPhone+OS+8_4+like+Mac+OS+X)+AppleWebKit%2F600.1.4+(KHTML%2C+like+Gecko)+Mobile%2F12H143+com.farfetch.discover","is_flat_rate_ship":"-1","browser_language":"pt-pt","sub_folder":"%2Fbr","geo_sub_folder":"%2Fao","just_registered":"false","returning":"false","is_bot":"false","checkout_type":"4"}
{"@version":"1","@timestamp":"2015-08-04T10:40:23.000Z","log_time":"2015-08-04;10:40:23","page_id":"homepage","page_url":"http%3A%2F%2Fwww.farfetch.com%2F%2F","session_id":"uyp0g14b3eivvgs3fogpbkpw","country_id":"216","is_logged":"false","has_video":"A","is_returning":"false","basket_id":"2742b0fc-12b1-40a3-81e8-f878676c9aaf","instance_id":"2742b0fc-12b1-40a3-81e8-f878676c9aaf","cookie_id":"5kqryxcex23mxsurqa4ocrz3B231CB7AA7ECDA0E97A34BDC89","ip":"94.58.13.24","agent":"Mozilla%2F5.0+(iPhone%3B+CPU+iPhone+OS+8_4+like+Mac+OS+X)+AppleWebKit%2F600.1.4+(KHTML%2C+like+Gecko)+Mobile%2F12H143+com.farfetch.discover","is_flat_rate_ship":"-1","browser_language":"en-us","geo_sub_folder":"%2Fae","just_registered":"false","returning":"false","is_bot":"false","checkout_type":"4","geoip":{"ip":"94.58.13.24","country_code2":"AE","country_code3":"ARE","country_name":"United Arab Emirates","continent_code":"AS","region_name":"01","city_name":"Abu Dhabi","latitude":24.466700000000003,"longitude":54.36670000000001,"timezone":"Asia/Dubai","real_region_name":"Abu Dhabi","location":[54.36670000000001,24.466700000000003]}}
{"@version":"1","@timestamp":"2015-08-04T10:40:23.000Z","log_time":"2015-08-04;10:40:23","page_id":"listing","page_url":"http%3A%2F%2Fwww.farfetch.com%2Fshopping%2Fwomen%2Fdolce-gabbana%2Fitems.aspx%3Fq%3DDol%23ps%3D1%26pv%3D60%26oby%3D5%26lsf%3D63%26f30d1%3D135973%26f30d2%3D136011%3A136326","session_id":"pwvrooxq2hbv3gabydfggxxu","country_id":"216","is_logged":"false","has_video":"B","is_returning":"false","basket_id":"15b06fb1-b96c-44b3-919e-ab0411e904c5","instance_id":"15b06fb1-b96c-44b3-919e-ab0411e904c5","cookie_id":"qpkbsj3cs5zfvyvoyfk4fjqi4AB877C8A583C97CC2EFBC79D8","ip":"203.189.135.101","agent":"Mozilla%2F5.0+(iPhone%3B+CPU+iPhone+OS+8_4+like+Mac+OS+X)+AppleWebKit%2F600.1.4+(KHTML%2C+like+Gecko)+Version%2F8.0+Mobile%2F12H143+Safari%2F600.1.4","is_flat_rate_ship":"-1","referral":"http%3A%2F%2Fwww.farfetch.com%2Fshopping%2Fwomen%2Fsalvatore-ferragamo%2Fitems.aspx","browser_language":"en-us","geo_sub_folder":"%2Fkh","just_registered":"false","returning":"false","is_bot":"false","tracker_id":"82","tracker_value":"0%230","checkout_type":"4","geoip":{"ip":"203.189.135.101","country_code2":"KH","country_code3":"KHM","country_name":"Cambodia","continent_code":"AS","latitude":13.0,"longitude":105.0,"timezone":"Asia/Phnom_Penh","location":[105.0,13.0]}}
{"@version":"1","@timestamp":"2015-08-04T10:40:23.000Z","log_time":"2015-08-04;10:40:23","page_id":"geral","page_url":"http%3A%2F%2Fwww.farfetch.com%2Ffr%2Fshopping%2Fwomen%2Fitems.aspx%3Fff_medium%3Dcpc%26ff_source%3DGoogle%2BAdwords%26ff_campaign%3DMens%2BDesigners%2BASIA%26ff_adgroup%3DHogan%2BRebel%26ff_keyword%3D%26ff_matchtype%3D%26ff_creativeid%3D50873935656%26ff_device%3Dc","session_id":"cuanyahnkrrmrgytpy3ggjcy","country_id":"70","is_logged":"false","is_returning":"false","basket_id":"1341782e-5686-4f9d-be46-76616fd57df8","instance_id":"1341782e-5686-4f9d-be46-76616fd57df8","cookie_id":"njpvooxy24mo124bvt2ykzwe3DA41562F6757AB2A413068BD7","ip":"74.125.63.33","agent":"Mozilla%2F5.0+(Windows+NT+6.1%3B+WOW64)+AppleWebKit%2F537.36+(KHTML%2C+like+Gecko)+Chrome%2F44.0.2403.125+Safari%2F537.36","is_flat_rate_ship":"-1","referral":"http%3A%2F%2Fwww.google.com%2Furl%3Fq%3Dhttp%253A%252F%252Fpixel.everesttech.net%252F3517%252Fc%253Fev_sid%253D3%2526ev_ln%253D%2526ev_lx%253D%2526ev_crx%253D51056438256%2526ev_mt%253D%2526ev_n%253Dg%2526ev_ltx%253D%2526ev_pl%253D%2526ev_pos%253Dnone%2526ev_dvc%253Dc%2526ev_dvm%253D%2526ev_phy%253D%2526ev_loc%253D%2526ev_cx%253D63137256%2526ev_ax%253D5838771096%2526url%253Dhttp%253A%252F%252Fwww.farfetch.com%252F%25253Fff_medium%25253Dcpc%252526ff_source%25253DGoogle%25252BAdwords%252526ff_campaign%25253DMens%25252BDesigners%25252BASIA%252526ff_adgroup%25253DHogan%25252BRebel%252526ff_keyword%25253D%252526ff_matchtype%25253D%252526ff_creativeid%25253D50873935656%252526ff_device%25253Dc%26sa%3DD%26usg%3DAFQjCNFMHMItJDhOPxpdHkzwOJvb9PRI6Q","browser_language":"en-US","sub_folder":"%2Ffr","geo_sub_folder":"%2Fin","just_registered":"false","returning":"false","is_bot":"false","checkout_type":"4","geoip":{"ip":"74.125.63.33","country_code2":"IN","country_code3":"IND","country_name":"India","continent_code":"AS","latitude":20.0,"longitude":77.0,"timezone":"Asia/Calcutta","location":[77.0,20.0]}}
{"@version":"1","@timestamp":"2015-08-04T10:40:23.000Z","log_time":"2015-08-04;10:40:23","cs_ilc%5Bpt%5D":"50","cs_ilc%5Bps%5D":"1","cs_ilc%5Bpv%5D":"60","cs_ilc%5Bit%5D":"Artikel","page_id":"listing","page_url":"http%3A%2F%2Fwww.farfetch.com%2Fde%2Fshopping%2Fwomen%2Femporio-armani%2Fitems.aspx%3Fgclid%3DCjwKEAjwxYGuBRCtoqjkrIPDqDwSJAAnd-rCuIkdumS1ft79YX23UEXZ5SkXtfG88xs3JMoV7J2bKRoCTqrw_wcB%26bfdqbt%3DEmporio%2BArmani%26campaign%3DWomens%2BDesigners%2BExact%2BASIA%2B-%2BKey%2BMarkets%26ff_medium%3Dcpc%26ff_source%3DGoogle%2BAdwords%26ff_campaign%3DWomens%2BDesigners%2BExact%2BASIA%2B-%2BKey%2BMarkets%26ff_adgroup%3DEmporio%2BArmani%26ff_keyword%3DEmporio%2BArmani%26ff_matchtype%3DPhrase%26ff_creativeid%3D50947277136%26ff_device%3Dm%23ps%3D1%26pv%3D60%26oby%3D5","session_id":"crqeudd0f4tym1gigtpkiq4i","country_id":"77","is_logged":"false","has_video":"B","is_returning":"false","basket_id":"56918e61-0d95-4c67-8944-31022458161a","instance_id":"56918e61-0d95-4c67-8944-31022458161a","cookie_id":"b2sqhyuz4lg0qjhlzjpzwp3x1C22ABFD462756146EDC5C786E","ip":"115.66.66.198","agent":"Mozilla%2F5.0+(Linux%3B+Android+5.0%3B+SM-N9005+Build%2FLRX21V)+AppleWebKit%2F537.36+(KHTML%2C+like+Gecko)+Chrome%2F44.0.2403.133+Mobile+Safari%2F537.36","is_flat_rate_ship":"-1","referral":"http%3A%2F%2Fwww.google.com.sg%2Faclk%3Fsa%3Dl%26ai%3DCw7UTiJbAVZaxForLuATT07fgAZDonpkIuKOo570B_paEBggAEAEgqq_iEygDYL8FoAH00JjZA8gBAakCF9KidCkyuj6qBCdP0FJHxttzW3AJv-ecxQt7Sg-x4hJgtbdCSbx9I0_gtMg33Kx1PMGABZfgvAvYBgKAB5CF4iKIBwGQBwKoB6LCG6gHpr4b2AcB%26sig%3DAOD64_3G24EjSrd6FPQ17MKUeD6gDO9Sgw%26clui%3D0%26rct%3Dj%26q%3D%26ved%3D0CBkQ0QxqFQoTCOCqxseej8cCFUwZjgodo9IGFA%26adurl%3Dhttp%3A%2F%2Fpixel.everesttech.net%2F3517%2Fc%253Fev_sid%253D3%2526ev_ln%253Demporio%252520armani%2526ev_lx%253Dkwd-12651390%2526ev_crx%253D50947277136%2526ev_mt%253Dp%2526ev_n%253Dg%2526ev_ltx%253D%2526ev_pl%253D%2526ev_pos%253D1t1%2526ev_dvc%253Dm%2526ev_dvm%253D%2526ev_phy%253D9062524%2526ev_loc%253D%2526ev_cx%253D171859056%2526ev_ax%253D8135128056%2526url%253Dhttp%3A%2F%2Fwww.farfetch.com%2Fshopping%2Fwomen%2Femporio-armani%2Fitems.aspx%25253Fbfdqbt%25253DEmporio%25252BArmani%252526campaign%25253DWomens%25252BDesigners%25252BExact%25252BASIA%25252B-%25252BKey%25252BMarkets%252526ff_medium%25253Dcpc%252526ff_source%25253DGoogle%25252BAdwords%252526ff_campaign%25253DWomens%25252BDesigners%25252BExact%25252BASIA%25252B-%25252BKey%25252BMarkets%252526ff_adgroup%25253DEmporio%25252BArmani%252526ff_keyword%25253DEmporio%25252BArmani%252526ff_matchtype%25253DPhrase%252526ff_creativeid%25253D50947277136%252526ff_device%25253Dm","browser_language":"en-GB","sub_folder":"%2Fde","geo_sub_folder":"%2Fsg","just_registered":"false","returning":"false","is_bot":"false","checkout_type":"4","geoip":{"ip":"115.66.66.198","country_code2":"SG","country_code3":"SGP","country_name":"Singapore","continent_code":"AS","region_name":"00","city_name":"Singapore","latitude":1.2931000000000097,"longitude":103.85579999999999,"timezone":"Asia/Singapore","location":[103.85579999999999,1.2931000000000097]}}
